{
  "package": {
    "productName": "chad-launcher",
    "version": "0.3.0"
  },
  "build": {
    "distDir": "../build",
    "devPath": "http://localhost:3000",
    "beforeDevCommand": "",
    "beforeBuildCommand": ""
  },
  "tauri": {
    "bundle": {
      "active": true,
      "targets": ["deb"],
      "identifier": "johncena141.chad_launcher",
      "icon": [
        "icons/32x32.png",
        "icons/128x128.png",
        "icons/128x128@2x.png",
        "icons/icon.icns",
        "icons/icon.ico"
      ],
      "resources": [],
      "externalBin": [],
      "copyright": "",
      "category": "Entertainment",
      "shortDescription": "",
      "longDescription": "",
      "deb": {
        "depends": [],
        "useBootstrapper": false
      },
      "macOS": {
        "frameworks": [],
        "minimumSystemVersion": "",
        "useBootstrapper": false,
        "exceptionDomain": "",
        "signingIdentity": null,
        "entitlements": null
      },
      "windows": {
        "certificateThumbprint": null,
        "digestAlgorithm": "sha256",
        "timestampUrl": ""
      }
    },
    "updater": {
      "active": false
    },
    "allowlist": {
      "dialog": {
        "all": true,
        "open": true,
        "save": true
      },
      "window": {
        "all": true,
        "create": false
      }
    },
    "windows": [
      {
        "title": "Chad Launcher",
        "width": 800,
        "height": 600,
        "resizable": true,
        "fullscreen": false,
        "maximized": true,
        "decorations": true
      }
    ],
    "security": {
      "csp": "blob: data: filesystem: ws: wss: http: https: tauri: 'unsafe-eval' 'unsafe-inline' 'self' img-src: 'self'"
    }
  }
}
